^C:\DOCUMENTS AND SETTINGS\CORY\MY DOCUMENTS\VISUAL STUDIO 2010\PROJECTS\POKEDIPLOMAGENERATOR SOLUTION\POKEDIPLOMAGENERATOR\GUI\MAINWINDOW.RESX
^C:\DOCUMENTS AND SETTINGS\CORY\MY DOCUMENTS\VISUAL STUDIO 2010\PROJECTS\POKEDIPLOMAGENERATOR SOLUTION\POKEDIPLOMAGENERATOR\PROPERTIES\RESOURCES.RESX
C:\WINDOWS\ASSEMBLY\PUBPOL21.DAT
C:\WINDOWS\MICROSOFT.NET\ASSEMBLY\GAC_MSIL\MICROSOFT.BUILD.TASKS.V4.0\V4.0_4.0.0.0__B03F5F7F11D50A3A\MICROSOFT.BUILD.TASKS.V4.0.DLL
C:\DOCUMENTS AND SETTINGS\CORY\MY DOCUMENTS\VISUAL STUDIO 2010\PROJECTS\POKEDIPLOMAGENERATOR SOLUTION\POKEDIPLOMAGENERATOR\RESOURCES\UPPER\A.BMP
C:\DOCUMENTS AND SETTINGS\CORY\MY DOCUMENTS\VISUAL STUDIO 2010\PROJECTS\POKEDIPLOMAGENERATOR SOLUTION\POKEDIPLOMAGENERATOR\RESOURCES\LOWER\A.BMP
C:\DOCUMENTS AND SETTINGS\CORY\MY DOCUMENTS\VISUAL STUDIO 2010\PROJECTS\POKEDIPLOMAGENERATOR SOLUTION\POKEDIPLOMAGENERATOR\RESOURCES\UPPER\B.BMP
C:\DOCUMENTS AND SETTINGS\CORY\MY DOCUMENTS\VISUAL STUDIO 2010\PROJECTS\POKEDIPLOMAGENERATOR SOLUTION\POKEDIPLOMAGENERATOR\RESOURCES\LOWER\B.BMP
C:\DOCUMENTS AND SETTINGS\CORY\MY DOCUMENTS\VISUAL STUDIO 2010\PROJECTS\POKEDIPLOMAGENERATOR SOLUTION\POKEDIPLOMAGENERATOR\RESOURCES\UPPER\C.BMP
C:\DOCUMENTS AND SETTINGS\CORY\MY DOCUMENTS\VISUAL STUDIO 2010\PROJECTS\POKEDIPLOMAGENERATOR SOLUTION\POKEDIPLOMAGENERATOR\RESOURCES\LOWER\C.BMP
C:\DOCUMENTS AND SETTINGS\CORY\MY DOCUMENTS\VISUAL STUDIO 2010\PROJECTS\POKEDIPLOMAGENERATOR SOLUTION\POKEDIPLOMAGENERATOR\RESOURCES\UPPER\D.BMP
C:\DOCUMENTS AND SETTINGS\CORY\MY DOCUMENTS\VISUAL STUDIO 2010\PROJECTS\POKEDIPLOMAGENERATOR SOLUTION\POKEDIPLOMAGENERATOR\RESOURCES\LOWER\D.BMP
C:\DOCUMENTS AND SETTINGS\CORY\MY DOCUMENTS\VISUAL STUDIO 2010\PROJECTS\POKEDIPLOMAGENERATOR SOLUTION\POKEDIPLOMAGENERATOR\RESOURCES\UPPER\E.BMP
C:\DOCUMENTS AND SETTINGS\CORY\MY DOCUMENTS\VISUAL STUDIO 2010\PROJECTS\POKEDIPLOMAGENERATOR SOLUTION\POKEDIPLOMAGENERATOR\RESOURCES\LOWER\E.BMP
C:\DOCUMENTS AND SETTINGS\CORY\MY DOCUMENTS\VISUAL STUDIO 2010\PROJECTS\POKEDIPLOMAGENERATOR SOLUTION\POKEDIPLOMAGENERATOR\RESOURCES\UPPER\F.BMP
C:\DOCUMENTS AND SETTINGS\CORY\MY DOCUMENTS\VISUAL STUDIO 2010\PROJECTS\POKEDIPLOMAGENERATOR SOLUTION\POKEDIPLOMAGENERATOR\RESOURCES\LOWER\F.BMP
C:\DOCUMENTS AND SETTINGS\CORY\MY DOCUMENTS\VISUAL STUDIO 2010\PROJECTS\POKEDIPLOMAGENERATOR SOLUTION\POKEDIPLOMAGENERATOR\RESOURCES\UPPER\G.BMP
C:\DOCUMENTS AND SETTINGS\CORY\MY DOCUMENTS\VISUAL STUDIO 2010\PROJECTS\POKEDIPLOMAGENERATOR SOLUTION\POKEDIPLOMAGENERATOR\RESOURCES\LOWER\G.BMP
C:\DOCUMENTS AND SETTINGS\CORY\MY DOCUMENTS\VISUAL STUDIO 2010\PROJECTS\POKEDIPLOMAGENERATOR SOLUTION\POKEDIPLOMAGENERATOR\RESOURCES\UPPER\H.BMP
C:\DOCUMENTS AND SETTINGS\CORY\MY DOCUMENTS\VISUAL STUDIO 2010\PROJECTS\POKEDIPLOMAGENERATOR SOLUTION\POKEDIPLOMAGENERATOR\RESOURCES\LOWER\H.BMP
C:\DOCUMENTS AND SETTINGS\CORY\MY DOCUMENTS\VISUAL STUDIO 2010\PROJECTS\POKEDIPLOMAGENERATOR SOLUTION\POKEDIPLOMAGENERATOR\RESOURCES\UPPER\I.BMP
C:\DOCUMENTS AND SETTINGS\CORY\MY DOCUMENTS\VISUAL STUDIO 2010\PROJECTS\POKEDIPLOMAGENERATOR SOLUTION\POKEDIPLOMAGENERATOR\RESOURCES\LOWER\I.BMP
C:\DOCUMENTS AND SETTINGS\CORY\MY DOCUMENTS\VISUAL STUDIO 2010\PROJECTS\POKEDIPLOMAGENERATOR SOLUTION\POKEDIPLOMAGENERATOR\RESOURCES\UPPER\J.BMP
C:\DOCUMENTS AND SETTINGS\CORY\MY DOCUMENTS\VISUAL STUDIO 2010\PROJECTS\POKEDIPLOMAGENERATOR SOLUTION\POKEDIPLOMAGENERATOR\RESOURCES\LOWER\J.BMP
C:\DOCUMENTS AND SETTINGS\CORY\MY DOCUMENTS\VISUAL STUDIO 2010\PROJECTS\POKEDIPLOMAGENERATOR SOLUTION\POKEDIPLOMAGENERATOR\RESOURCES\UPPER\K.BMP
C:\DOCUMENTS AND SETTINGS\CORY\MY DOCUMENTS\VISUAL STUDIO 2010\PROJECTS\POKEDIPLOMAGENERATOR SOLUTION\POKEDIPLOMAGENERATOR\RESOURCES\LOWER\K.BMP
C:\DOCUMENTS AND SETTINGS\CORY\MY DOCUMENTS\VISUAL STUDIO 2010\PROJECTS\POKEDIPLOMAGENERATOR SOLUTION\POKEDIPLOMAGENERATOR\RESOURCES\UPPER\L.BMP
C:\DOCUMENTS AND SETTINGS\CORY\MY DOCUMENTS\VISUAL STUDIO 2010\PROJECTS\POKEDIPLOMAGENERATOR SOLUTION\POKEDIPLOMAGENERATOR\RESOURCES\LOWER\L.BMP
C:\DOCUMENTS AND SETTINGS\CORY\MY DOCUMENTS\VISUAL STUDIO 2010\PROJECTS\POKEDIPLOMAGENERATOR SOLUTION\POKEDIPLOMAGENERATOR\RESOURCES\UPPER\M.BMP
C:\DOCUMENTS AND SETTINGS\CORY\MY DOCUMENTS\VISUAL STUDIO 2010\PROJECTS\POKEDIPLOMAGENERATOR SOLUTION\POKEDIPLOMAGENERATOR\RESOURCES\LOWER\M.BMP
C:\DOCUMENTS AND SETTINGS\CORY\MY DOCUMENTS\VISUAL STUDIO 2010\PROJECTS\POKEDIPLOMAGENERATOR SOLUTION\POKEDIPLOMAGENERATOR\RESOURCES\UPPER\N.BMP
C:\DOCUMENTS AND SETTINGS\CORY\MY DOCUMENTS\VISUAL STUDIO 2010\PROJECTS\POKEDIPLOMAGENERATOR SOLUTION\POKEDIPLOMAGENERATOR\RESOURCES\LOWER\N.BMP
C:\DOCUMENTS AND SETTINGS\CORY\MY DOCUMENTS\VISUAL STUDIO 2010\PROJECTS\POKEDIPLOMAGENERATOR SOLUTION\POKEDIPLOMAGENERATOR\RESOURCES\UPPER\O.BMP
C:\DOCUMENTS AND SETTINGS\CORY\MY DOCUMENTS\VISUAL STUDIO 2010\PROJECTS\POKEDIPLOMAGENERATOR SOLUTION\POKEDIPLOMAGENERATOR\RESOURCES\LOWER\O.BMP
C:\DOCUMENTS AND SETTINGS\CORY\MY DOCUMENTS\VISUAL STUDIO 2010\PROJECTS\POKEDIPLOMAGENERATOR SOLUTION\POKEDIPLOMAGENERATOR\RESOURCES\UPPER\P.BMP
C:\DOCUMENTS AND SETTINGS\CORY\MY DOCUMENTS\VISUAL STUDIO 2010\PROJECTS\POKEDIPLOMAGENERATOR SOLUTION\POKEDIPLOMAGENERATOR\RESOURCES\LOWER\P.BMP
C:\DOCUMENTS AND SETTINGS\CORY\MY DOCUMENTS\VISUAL STUDIO 2010\PROJECTS\POKEDIPLOMAGENERATOR SOLUTION\POKEDIPLOMAGENERATOR\RESOURCES\UPPER\Q.BMP
C:\DOCUMENTS AND SETTINGS\CORY\MY DOCUMENTS\VISUAL STUDIO 2010\PROJECTS\POKEDIPLOMAGENERATOR SOLUTION\POKEDIPLOMAGENERATOR\RESOURCES\LOWER\Q.BMP
C:\DOCUMENTS AND SETTINGS\CORY\MY DOCUMENTS\VISUAL STUDIO 2010\PROJECTS\POKEDIPLOMAGENERATOR SOLUTION\POKEDIPLOMAGENERATOR\RESOURCES\UPPER\R.BMP
C:\DOCUMENTS AND SETTINGS\CORY\MY DOCUMENTS\VISUAL STUDIO 2010\PROJECTS\POKEDIPLOMAGENERATOR SOLUTION\POKEDIPLOMAGENERATOR\RESOURCES\LOWER\R.BMP
C:\DOCUMENTS AND SETTINGS\CORY\MY DOCUMENTS\VISUAL STUDIO 2010\PROJECTS\POKEDIPLOMAGENERATOR SOLUTION\POKEDIPLOMAGENERATOR\RESOURCES\UPPER\S.BMP
C:\DOCUMENTS AND SETTINGS\CORY\MY DOCUMENTS\VISUAL STUDIO 2010\PROJECTS\POKEDIPLOMAGENERATOR SOLUTION\POKEDIPLOMAGENERATOR\RESOURCES\LOWER\S.BMP
C:\DOCUMENTS AND SETTINGS\CORY\MY DOCUMENTS\VISUAL STUDIO 2010\PROJECTS\POKEDIPLOMAGENERATOR SOLUTION\POKEDIPLOMAGENERATOR\RESOURCES\UPPER\T.BMP
C:\DOCUMENTS AND SETTINGS\CORY\MY DOCUMENTS\VISUAL STUDIO 2010\PROJECTS\POKEDIPLOMAGENERATOR SOLUTION\POKEDIPLOMAGENERATOR\RESOURCES\LOWER\T.BMP
C:\DOCUMENTS AND SETTINGS\CORY\MY DOCUMENTS\VISUAL STUDIO 2010\PROJECTS\POKEDIPLOMAGENERATOR SOLUTION\POKEDIPLOMAGENERATOR\RESOURCES\UPPER\U.BMP
C:\DOCUMENTS AND SETTINGS\CORY\MY DOCUMENTS\VISUAL STUDIO 2010\PROJECTS\POKEDIPLOMAGENERATOR SOLUTION\POKEDIPLOMAGENERATOR\RESOURCES\LOWER\U.BMP
C:\DOCUMENTS AND SETTINGS\CORY\MY DOCUMENTS\VISUAL STUDIO 2010\PROJECTS\POKEDIPLOMAGENERATOR SOLUTION\POKEDIPLOMAGENERATOR\RESOURCES\UPPER\V.BMP
C:\DOCUMENTS AND SETTINGS\CORY\MY DOCUMENTS\VISUAL STUDIO 2010\PROJECTS\POKEDIPLOMAGENERATOR SOLUTION\POKEDIPLOMAGENERATOR\RESOURCES\LOWER\V.BMP
C:\DOCUMENTS AND SETTINGS\CORY\MY DOCUMENTS\VISUAL STUDIO 2010\PROJECTS\POKEDIPLOMAGENERATOR SOLUTION\POKEDIPLOMAGENERATOR\RESOURCES\UPPER\W.BMP
C:\DOCUMENTS AND SETTINGS\CORY\MY DOCUMENTS\VISUAL STUDIO 2010\PROJECTS\POKEDIPLOMAGENERATOR SOLUTION\POKEDIPLOMAGENERATOR\RESOURCES\LOWER\W.BMP
C:\DOCUMENTS AND SETTINGS\CORY\MY DOCUMENTS\VISUAL STUDIO 2010\PROJECTS\POKEDIPLOMAGENERATOR SOLUTION\POKEDIPLOMAGENERATOR\RESOURCES\UPPER\X.BMP
C:\DOCUMENTS AND SETTINGS\CORY\MY DOCUMENTS\VISUAL STUDIO 2010\PROJECTS\POKEDIPLOMAGENERATOR SOLUTION\POKEDIPLOMAGENERATOR\RESOURCES\LOWER\X.BMP
C:\DOCUMENTS AND SETTINGS\CORY\MY DOCUMENTS\VISUAL STUDIO 2010\PROJECTS\POKEDIPLOMAGENERATOR SOLUTION\POKEDIPLOMAGENERATOR\RESOURCES\UPPER\Y.BMP
C:\DOCUMENTS AND SETTINGS\CORY\MY DOCUMENTS\VISUAL STUDIO 2010\PROJECTS\POKEDIPLOMAGENERATOR SOLUTION\POKEDIPLOMAGENERATOR\RESOURCES\LOWER\Y.BMP
C:\DOCUMENTS AND SETTINGS\CORY\MY DOCUMENTS\VISUAL STUDIO 2010\PROJECTS\POKEDIPLOMAGENERATOR SOLUTION\POKEDIPLOMAGENERATOR\RESOURCES\UPPER\Z.BMP
C:\DOCUMENTS AND SETTINGS\CORY\MY DOCUMENTS\VISUAL STUDIO 2010\PROJECTS\POKEDIPLOMAGENERATOR SOLUTION\POKEDIPLOMAGENERATOR\RESOURCES\LOWER\Z.BMP
C:\DOCUMENTS AND SETTINGS\CORY\MY DOCUMENTS\VISUAL STUDIO 2010\PROJECTS\POKEDIPLOMAGENERATOR SOLUTION\POKEDIPLOMAGENERATOR\RESOURCES\CHARS\SPACE.BMP
C:\DOCUMENTS AND SETTINGS\CORY\MY DOCUMENTS\VISUAL STUDIO 2010\PROJECTS\POKEDIPLOMAGENERATOR SOLUTION\POKEDIPLOMAGENERATOR\RESOURCES\DIPLOMAY.JPG
C:\DOCUMENTS AND SETTINGS\CORY\MY DOCUMENTS\VISUAL STUDIO 2010\PROJECTS\POKEDIPLOMAGENERATOR SOLUTION\POKEDIPLOMAGENERATOR\RESOURCES\DIPLOMARB.JPG
C:\DOCUMENTS AND SETTINGS\CORY\MY DOCUMENTS\VISUAL STUDIO 2010\PROJECTS\POKEDIPLOMAGENERATOR SOLUTION\POKEDIPLOMAGENERATOR\RESOURCES\DIPLOMAGSC.JPEG
